{
  "extras": [
    "lazyvim.plugins.extras.test.core",
    "lazyvim.plugins.extras.formatting.prettier",
    "lazyvim.plugins.extras.lang.clangd",
    "lazyvim.plugins.extras.lang.json",
    "lazyvim.plugins.extras.lang.markdown",
    "lazyvim.plugins.extras.lang.python",
    "lazyvim.plugins.extras.lang.rust",
    "lazyvim.plugins.extras.lang.tailwind",
    "lazyvim.plugins.extras.lang.typescript",
    "lazyvim.plugins.extras.lang.yaml",
    "lazyvim.plugins.extras.linting.eslint",
    "lazyvim.plugins.extras.ui.mini-animate",
    "lazyvim.plugins.extras.editor.outline"
  ],
  "news": {
    "NEWS.md": "3314"
  },
  "version": 3
}